{
  "name": "icons",
  "css_prefix_text": "icon-",
  "css_use_suffix": false,
  "hinting": true,
  "units_per_em": 1000,
  "ascent": 850,
  "glyphs": [
    {
      "uid": "aec47313ed60b45181173a798d5cf25b",
      "css": "checkbox",
      "code": 59392,
      "src": "custom_icons",
      "selected": true,
      "svg": {
        "path": "M888.9 111.1V888.9H111.1V111.1H888.9M888.9 0H111.1C50 0 0 50 0 111.1V888.9C0 950 50 1000 111.1 1000H888.9C950 1000 1000 950 1000 888.9V111.1C1000 50 950 0 888.9 0L888.9 0Z",
        "width": 1000
      },
      "search": [
        "checkbox"
      ]
    },
    {
      "uid": "e1c76be7f83e2f83ed8b1e6e449c709c",
      "css": "checkbox-checked",
      "code": 59393,
      "src": "custom_icons",
      "selected": true,
      "svg": {
        "path": "M272.2 394.4L194.4 472.2 444.4 722.2 1000 166.7 922.2 88.9 444.4 566.7 272.2 394.4ZM888.9 888.9H111.1V111.1H666.7V0H111.1C50 0 0 50 0 111.1V888.9C0 950 50 1000 111.1 1000H888.9C950 1000 1000 950 1000 888.9V444.4H888.9V888.9Z",
        "width": 1000
      },
      "search": [
        "checkbox-checked"
      ]
    },
    {
      "uid": "97c0ee2bff1fb25078ce15f4fe963944",
      "css": "radio",
      "code": 59394,
      "src": "custom_icons",
      "selected": true,
      "svg": {
        "path": "M500 0C225 0 0 225 0 500S225 1000 500 1000 1000 775 1000 500 775 0 500 0ZM500 900C280 900 100 720 100 500S280 100 500 100 900 280 900 500 720 900 500 900Z",
        "width": 1000
      },
      "search": [
        "radio"
      ]
    },
    {
      "uid": "453d845f85df02fbafca597181130dd3",
      "css": "radio-checked",
      "code": 59395,
      "src": "custom_icons",
      "selected": true,
      "svg": {
        "path": "M500 250C360 250 250 360 250 500 250 640 360 750 500 750 640 750 750 640 750 500 750 360 640 250 500 250ZM500 0C225 0 0 225 0 500S225 1000 500 1000 1000 775 1000 500 775 0 500 0ZM500 900C280 900 100 720 100 500S280 100 500 100 900 280 900 500 720 900 500 900Z",
        "width": 1000
      },
      "search": [
        "radio-checked"
      ]
    },
    {
      "uid": "e82cedfa1d5f15b00c5a81c9bd731ea2",
      "css": "info-circled",
      "code": 59396,
      "src": "fontawesome"
    },
    {
      "uid": "b035c28eba2b35c6ffe92aee8b0df507",
      "css": "attention-circled",
      "code": 59397,
      "src": "fontawesome"
    },
    {
      "uid": "c76b7947c957c9b78b11741173c8349b",
      "css": "attention",
      "code": 59398,
      "src": "fontawesome"
    },
    {
      "uid": "0f4cae16f34ae243a6144c18a003f2d8",
      "css": "cancel-circled",
      "code": 59399,
      "src": "fontawesome"
    },
    {
      "uid": "5d1c94d9cc60f2bc6392c7333c26f4fe",
      "css": "arr-down---kopie",
      "code": 59400,
      "src": "custom_icons",
      "selected": true,
      "svg": {
        "path": "M122.6 393.8L49.8 428.4 56.6 431.6C60.4 433.3 161.7 481.1 281.7 537.9L500 641.1 718.2 537.9C838.3 481.1 939.6 433.3 943.4 431.6L950.2 428.4 876.8 393.7 803.3 358.9 653.9 429.6C571.7 468.5 503.4 500.7 502 501.2 499.8 502 479.7 492.8 348.1 430.6 264.9 391.2 196.5 359 196.1 359.1 195.8 359.2 162.7 374.8 122.6 393.8Z",
        "width": 1000
      },
      "search": [
        "arr-down---kopie"
      ]
    },
    {
      "uid": "aefe16f658901d21c0d7b415ced4d5e9",
      "css": "arr-left",
      "code": 59402,
      "src": "custom_icons",
      "selected": true,
      "svg": {
        "path": "M465.2 275.1L359 500 462.1 718.2C518.9 838.3 566.7 939.6 568.4 943.4L571.6 950.2 606.3 876.8 641.1 803.3 570.4 653.9C531.5 571.7 499.3 503.4 498.8 502 498 499.8 507.2 479.7 569.5 348.1L641.1 196.6 608.9 128.6C591.2 91.1 575.6 58.2 574.1 55.3L571.5 50.2 465.2 275.1Z",
        "width": 1000
      },
      "search": [
        "arr-left"
      ]
    },
    {
      "uid": "953d9b40d72a7a9dc94bbb7cc49d977b",
      "css": "arr-right",
      "code": 59403,
      "src": "custom_icons",
      "selected": true,
      "svg": {
        "path": "M393.7 123.2L358.9 196.6 430.5 348.1C492.8 479.7 502 499.8 501.2 502 500.7 503.4 468.5 571.7 429.6 653.9L358.9 803.3 393.7 876.8 428.4 950.2 431.6 943.4C433.3 939.6 481.1 838.3 537.9 718.2L641.1 500 537.9 281.7C481.1 161.7 433.3 60.4 431.6 56.6L428.4 49.8 393.7 123.2Z",
        "width": 1000
      },
      "search": [
        "arr-right"
      ]
    },
    {
      "uid": "b0ab0d7360586c00c2608d12bbef9bc1",
      "css": "arr-up",
      "code": 59404,
      "src": "custom_icons",
      "selected": true,
      "svg": {
        "path": "M277.5 464C155.4 521.7 54.2 569.5 52.6 570.3 49.8 571.6 51.8 572.6 123.2 606.3L196.6 641.1 348.1 569.5C479.7 507.2 499.8 498 502 498.8 503.4 499.3 571.7 531.5 653.9 570.4L803.3 641.1 876.8 606.3 950.2 571.6 943.4 568.4C939.6 566.7 838.3 518.9 718.3 462.1 598.3 405.4 500 359 499.8 359 499.6 359.1 399.6 406.3 277.5 464Z",
        "width": 1000
      },
      "search": [
        "arr-up"
      ]
    },
    {
      "uid": "d086b2d5df648cccbafef49e61f0fc9f",
      "css": "minus",
      "code": 59401,
      "src": "custom_icons",
      "selected": true,
      "svg": {
        "path": "M477.5 50.7C386.1 55.7 300.2 87.1 228 141.9 194.2 167.5 158.3 204.6 133.6 239.4 100.9 285.3 77.2 336.8 63.6 391.5 54.4 428.8 50.7 459.8 50.7 500 50.7 571.2 65.4 634.9 96.6 698 118.9 743.3 143.8 778.4 179 814.4 245.4 882.3 330.7 927.1 423.6 943 451.4 947.8 469.5 949.3 499.5 949.3 540.1 949.4 572.4 945.5 610.1 936 723.6 907.3 821.5 835.4 883.4 735 918.2 678.6 939.9 614.8 947.6 546 950 524.4 950 475.6 947.6 454 935.8 348.4 891.5 255.6 818 182 740.3 104.4 639.5 58.7 529 51.1 516.6 50.2 489.5 50 477.5 50.7ZM536.5 96.5C690 110.6 820.6 208.6 877.4 352 887.5 377.7 896 408.9 900.4 436.5 906.2 473.3 906.6 518 901.4 555.5 892 623.9 865.1 689 823.1 744.4 801.5 773.1 771.1 803.3 742.5 824.5 644.3 897.5 520.9 922.3 401.8 892.9 304.3 868.9 219 808.5 162.2 723.3 127 670.7 105.5 611.4 97.3 545 95.1 527 94.8 476.4 96.8 459.5 106.7 374.6 136.6 303.6 189.1 240.3 202.1 224.7 230.5 196.7 245.5 184.7 308.3 134.5 383 104 461.9 96.5 480.9 94.7 517.2 94.7 536.5 96.5ZM298 500L298 522 500 522 702 522 702 500 702 478 500 478 298 478 298 500Z",
        "width": 1000
      },
      "search": [
        "minus"
      ]
    },
    {
      "uid": "50812a1a289d657126996029e5bc4655",
      "css": "plus",
      "code": 59405,
      "src": "custom_icons",
      "selected": true,
      "svg": {
        "path": "M477.5 50.7C386.1 55.7 300.2 87.1 228 141.9 194.2 167.5 158.3 204.6 133.6 239.4 100.9 285.3 77.2 336.8 63.6 391.5 54.4 428.8 50.7 459.8 50.7 500 50.7 571.2 65.4 634.9 96.6 698 118.9 743.3 143.8 778.4 179 814.4 245.4 882.3 330.7 927.1 423.6 943 451.4 947.8 469.5 949.3 499.5 949.3 540.1 949.4 572.4 945.5 610.1 936 723.6 907.3 821.5 835.4 883.4 735 918.2 678.6 939.9 614.8 947.6 546 950 524.4 950 475.6 947.6 454 935.8 348.4 891.5 255.6 818 182 740.3 104.4 639.5 58.7 529 51.1 516.6 50.2 489.5 50 477.5 50.7ZM536.5 96.5C690 110.6 820.6 208.6 877.4 352 887.5 377.7 896 408.9 900.4 436.5 906.2 473.3 906.6 518 901.4 555.5 892 623.9 865.1 689 823.1 744.4 801.5 773.1 771.1 803.3 742.5 824.5 644.3 897.5 520.9 922.3 401.8 892.9 304.3 868.9 219 808.5 162.2 723.3 127 670.7 105.5 611.4 97.3 545 95.1 527 94.8 476.4 96.8 459.5 106.7 374.6 136.6 303.6 189.1 240.3 202.1 224.7 230.5 196.7 245.5 184.7 308.3 134.5 383 104 461.9 96.5 480.9 94.7 517.2 94.7 536.5 96.5ZM477.8 387.7L477.5 477.5 387.8 477.8 298 478 298 500 298 522 388 522 478 522 478 612 478 702 500.3 702 522.5 702 522.5 612.3 522.5 522.5 612.3 522.2 702 522 702 500 702 478 612.3 477.8 522.5 477.5 522.5 387.7 522.5 298 500.3 298 478 298 477.8 387.7Z",
        "width": 1000
      },
      "search": [
        "plus"
      ]
    },
    {
      "uid": "8c975b8626be4c69083a8013acf192a4",
      "css": "square",
      "code": 59406,
      "src": "custom_icons",
      "selected": true,
      "svg": {
        "path": "M50 500L50 950 500 950 950 950 950 500 950 50 500 50 50 50 50 500ZM762 500L762 762 500 762 238 762 238 500 238 238 500 238 762 238 762 500Z",
        "width": 1000
      },
      "search": [
        "square"
      ]
    },
    {
      "uid": "559647a6f430b3aeadbecd67194451dd",
      "css": "menu",
      "code": 59407,
      "src": "fontawesome"
    },
    {
      "uid": "23a1de57eb7b0c8281656a3ddadf3ee3",
      "css": "phone-circled",
      "code": 59408,
      "src": "elusive"
    },
    {
      "uid": "54ee0df068f4afe93779eb184f9b77f2",
      "css": "desktop-circled",
      "code": 59409,
      "src": "elusive"
    }
  ]
}